<define-tag pagetitle>DLA-917-1 rtmpdump</define-tag>
<define-tag report_date>2017-4-25</define-tag>
<define-tag secrefs>CVE-2015-8270 CVE-2015-8271 CVE-2015-8272</define-tag>
<define-tag packages>rtmpdump</define-tag>
<define-tag isvulnerable>yes</define-tag>
<define-tag fixed>yes</define-tag>
<define-tag fixed-section>no</define-tag>

#use wml::debian::security

