<define-tag pagetitle>DLA-906-1 firefox-esr</define-tag>
<define-tag report_date>2017-4-21</define-tag>
<define-tag secrefs>CVE-2017-5429 CVE-2017-5432 CVE-2017-5433 CVE-2017-5434 CVE-2017-5435 CVE-2017-5436 CVE-2017-5438 CVE-2017-5439 CVE-2017-5440 CVE-2017-5441 CVE-2017-5442 CVE-2017-5443 CVE-2017-5444 CVE-2017-5445 CVE-2017-5446 CVE-2017-5447 CVE-2017-5448 CVE-2017-5459 CVE-2017-5460 CVE-2017-5461 CVE-2017-5462 CVE-2017-5464 CVE-2017-5465 CVE-2017-5469</define-tag>
<define-tag packages>firefox-esr</define-tag>
<define-tag isvulnerable>yes</define-tag>
<define-tag fixed>yes</define-tag>
<define-tag fixed-section>no</define-tag>

#use wml::debian::security

