<define-tag pagetitle>DLA-914-1 minicom</define-tag>
<define-tag report_date>2017-4-24</define-tag>
<define-tag secrefs>CVE-2017-7467 Bug#860940</define-tag>
<define-tag packages>minicom</define-tag>
<define-tag isvulnerable>yes</define-tag>
<define-tag fixed>yes</define-tag>
<define-tag fixed-section>no</define-tag>

#use wml::debian::security

