<define-tag pagetitle>DLA-901-1 radare2</define-tag>
<define-tag report_date>2017-4-17</define-tag>
<define-tag secrefs>CVE-2017-6448</define-tag>
<define-tag packages>radare2</define-tag>
<define-tag isvulnerable>yes</define-tag>
<define-tag fixed>yes</define-tag>
<define-tag fixed-section>no</define-tag>

#use wml::debian::security

