<define-tag pagetitle>DLA-1192-1 libofx</define-tag>
<define-tag report_date>2017-11-26</define-tag>
<define-tag secrefs>CVE-2017-2816 CVE-2017-14731</define-tag>
<define-tag packages>libofx</define-tag>
<define-tag isvulnerable>yes</define-tag>
<define-tag fixed>yes</define-tag>
<define-tag fixed-section>no</define-tag>

#use wml::debian::security

