<define-tag pagetitle>DLA-1474-1 openssh</define-tag>
<define-tag report_date>2018-8-21</define-tag>
<define-tag secrefs>CVE-2018-15473 Bug##906236</define-tag>
<define-tag packages>openssh</define-tag>
<define-tag isvulnerable>yes</define-tag>
<define-tag fixed>yes</define-tag>
<define-tag fixed-section>no</define-tag>

#use wml::debian::security

