<define-tag pagetitle>DLA-1596-1 squid3</define-tag>
<define-tag report_date>2018-11-26</define-tag>
<define-tag secrefs>CVE-2018-19132 Bug#912294</define-tag>
<define-tag packages>squid3</define-tag>
<define-tag isvulnerable>yes</define-tag>
<define-tag fixed>yes</define-tag>
<define-tag fixed-section>no</define-tag>

#use wml::debian::security

