<define-tag pagetitle>DLA-1558-1 ruby2.1</define-tag>
<define-tag report_date>2018-10-28</define-tag>
<define-tag secrefs>CVE-2018-16395 CVE-2018-16396</define-tag>
<define-tag packages>ruby2.1</define-tag>
<define-tag isvulnerable>yes</define-tag>
<define-tag fixed>yes</define-tag>
<define-tag fixed-section>no</define-tag>

#use wml::debian::security

