<define-tag pagetitle>DLA-1497-1 qemu</define-tag>
<define-tag report_date>2018-9-6</define-tag>
<define-tag secrefs>CVE-2015-8666 CVE-2016-2198 CVE-2016-6833 CVE-2016-6835 CVE-2016-8576 CVE-2016-8667 CVE-2016-8669 CVE-2016-9602 CVE-2016-9603 CVE-2016-9776 CVE-2016-9907 CVE-2016-9911 CVE-2016-9914 CVE-2016-9915 CVE-2016-9916 CVE-2016-9921 CVE-2016-9922 CVE-2016-10155 CVE-2017-2615 CVE-2017-2620 CVE-2017-5525 CVE-2017-5526 CVE-2017-5579 CVE-2017-5667 CVE-2017-5715 CVE-2017-5856 CVE-2017-5973 CVE-2017-5987 CVE-2017-6505 CVE-2017-7377 CVE-2017-7493 CVE-2017-7718 CVE-2017-7980 CVE-2017-8086 CVE-2017-8112 CVE-2017-8309 CVE-2017-8379 CVE-2017-9330 CVE-2017-9373 CVE-2017-9374 CVE-2017-9503 CVE-2017-10806 CVE-2017-10911 CVE-2017-11434 CVE-2017-14167 CVE-2017-15038 CVE-2017-15289 CVE-2017-16845 CVE-2017-18030 CVE-2017-18043 CVE-2018-5683 CVE-2018-7550 Bug#813193 Bug#834904 Bug#835031 Bug#840945 Bug#840950 Bug#847496 Bug#847951 Bug#847953</define-tag>
<define-tag packages>qemu</define-tag>
<define-tag isvulnerable>yes</define-tag>
<define-tag fixed>yes</define-tag>
<define-tag fixed-section>no</define-tag>

#use wml::debian::security

