<define-tag pagetitle>DLA-1248-1 libgd2</define-tag>
<define-tag report_date>2018-1-19</define-tag>
<define-tag secrefs>CVE-2018-5711 Bug##887485</define-tag>
<define-tag packages>libgd2</define-tag>
<define-tag isvulnerable>yes</define-tag>
<define-tag fixed>yes</define-tag>
<define-tag fixed-section>no</define-tag>

#use wml::debian::security

