<define-tag pagetitle>DLA-1227-1 imagemagick</define-tag>
<define-tag report_date>2018-1-1</define-tag>
<define-tag secrefs>CVE-2017-17504 CVE-2017-17682 CVE-2017-17879 CVE-2017-17914 Bug#885340 Bug#885942 Bug#885125</define-tag>
<define-tag packages>imagemagick</define-tag>
<define-tag isvulnerable>yes</define-tag>
<define-tag fixed>yes</define-tag>
<define-tag fixed-section>no</define-tag>

#use wml::debian::security

