<define-tag pagetitle>DSA-4455-1 heimdal</define-tag>
<define-tag report_date>2019-6-03</define-tag>
<define-tag secrefs>CVE-2018-16860 CVE-2019-12098 Bug#928966 Bug#929064</define-tag>
<define-tag packages>heimdal</define-tag>
<define-tag isvulnerable>yes</define-tag>
<define-tag fixed>yes</define-tag>
<define-tag fixed-section>no</define-tag>

#use wml::debian::security



</dl>
