<define-tag pagetitle>DLA-1797-1 drupal7</define-tag>
<define-tag report_date>2019-05-20</define-tag>
<define-tag secrefs>CVE-2019-11358 CVE-2019-11831 Bug#927330 Bug#928688</define-tag>
<define-tag packages>drupal7</define-tag>
<define-tag isvulnerable>yes</define-tag>
<define-tag fixed>yes</define-tag>
<define-tag fixed-section>no</define-tag>

#use wml::debian::security

