<define-tag pagetitle>DLA-1675-1 python-gnupg</define-tag>
<define-tag report_date>2019-2-14</define-tag>
<define-tag secrefs>CVE-2019-6690</define-tag>
<define-tag packages>python-gnupg</define-tag>
<define-tag isvulnerable>yes</define-tag>
<define-tag fixed>yes</define-tag>
<define-tag fixed-section>no</define-tag>

#use wml::debian::security

